%YAML 1.1
%TAG !u! tag:unity3d.com,2011:
--- !u!74 &7400000
AnimationClip:
  m_ObjectHideFlags: 0
  m_CorrespondingSourceObject: {fileID: 0}
  m_PrefabInstance: {fileID: 0}
  m_PrefabAsset: {fileID: 0}
  m_Name: Witch Attack
  serializedVersion: 6
  m_Legacy: 0
  m_Compressed: 0
  m_UseHighQualityCurve: 1
  m_RotationCurves: []
  m_CompressedRotationCurves: []
  m_EulerCurves: []
  m_PositionCurves: []
  m_ScaleCurves: []
  m_FloatCurves: []
  m_PPtrCurves:
  - curve:
    - time: 0
      value: {fileID: -7008412969330441016, guid: 467a24a686697446d8d035978bde1e3f,
        type: 3}
    - time: 0.083333336
      value: {fileID: -7763475090823894447, guid: 467a24a686697446d8d035978bde1e3f,
        type: 3}
    - time: 0.16666667
      value: {fileID: 302641331129538988, guid: 467a24a686697446d8d035978bde1e3f,
        type: 3}
    - time: 0.25
      value: {fileID: -6329420634031446844, guid: 467a24a686697446d8d035978bde1e3f,
        type: 3}
    - time: 0.33333334
      value: {fileID: -910092549403018386, guid: 467a24a686697446d8d035978bde1e3f,
        type: 3}
    - time: 0.41666666
      value: {fileID: 221524225039350300, guid: 467a24a686697446d8d035978bde1e3f,
        type: 3}
    - time: 0.5
      value: {fileID: 1290532464073988732, guid: 467a24a686697446d8d035978bde1e3f,
        type: 3}
    - time: 0.5833333
      value: {fileID: 4780903288873104255, guid: 467a24a686697446d8d035978bde1e3f,
        type: 3}
    - time: 0.6666667
      value: {fileID: -2238382357930459393, guid: 467a24a686697446d8d035978bde1e3f,
        type: 3}
    - time: 0.75
      value: {fileID: -297473348006037033, guid: 467a24a686697446d8d035978bde1e3f,
        type: 3}
    - time: 0.8333333
      value: {fileID: -4098942091326826159, guid: 467a24a686697446d8d035978bde1e3f,
        type: 3}
    - time: 0.9166667
      value: {fileID: -9192815492500660022, guid: 467a24a686697446d8d035978bde1e3f,
        type: 3}
    - time: 1
      value: {fileID: -8528791842903838742, guid: 467a24a686697446d8d035978bde1e3f,
        type: 3}
    - time: 1.0833334
      value: {fileID: 5714683192730101994, guid: 467a24a686697446d8d035978bde1e3f,
        type: 3}
    - time: 1.1666666
      value: {fileID: 967789818437793053, guid: 467a24a686697446d8d035978bde1e3f,
        type: 3}
    - time: 1.25
      value: {fileID: -1764178081267469583, guid: 467a24a686697446d8d035978bde1e3f,
        type: 3}
    - time: 1.3333334
      value: {fileID: 3677593348458361963, guid: 467a24a686697446d8d035978bde1e3f,
        type: 3}
    - time: 1.4166666
      value: {fileID: 460462634867118153, guid: 467a24a686697446d8d035978bde1e3f,
        type: 3}
    attribute: m_Sprite
    path: 
    classID: 212
    script: {fileID: 0}
  m_SampleRate: 12
  m_WrapMode: 0
  m_Bounds:
    m_Center: {x: 0, y: 0, z: 0}
    m_Extent: {x: 0, y: 0, z: 0}
  m_ClipBindingConstant:
    genericBindings:
    - serializedVersion: 2
      path: 0
      attribute: 0
      script: {fileID: 0}
      typeID: 212
      customType: 23
      isPPtrCurve: 1
    pptrCurveMapping:
    - {fileID: -7008412969330441016, guid: 467a24a686697446d8d035978bde1e3f, type: 3}
    - {fileID: -7763475090823894447, guid: 467a24a686697446d8d035978bde1e3f, type: 3}
    - {fileID: 302641331129538988, guid: 467a24a686697446d8d035978bde1e3f, type: 3}
    - {fileID: -6329420634031446844, guid: 467a24a686697446d8d035978bde1e3f, type: 3}
    - {fileID: -910092549403018386, guid: 467a24a686697446d8d035978bde1e3f, type: 3}
    - {fileID: 221524225039350300, guid: 467a24a686697446d8d035978bde1e3f, type: 3}
    - {fileID: 1290532464073988732, guid: 467a24a686697446d8d035978bde1e3f, type: 3}
    - {fileID: 4780903288873104255, guid: 467a24a686697446d8d035978bde1e3f, type: 3}
    - {fileID: -2238382357930459393, guid: 467a24a686697446d8d035978bde1e3f, type: 3}
    - {fileID: -297473348006037033, guid: 467a24a686697446d8d035978bde1e3f, type: 3}
    - {fileID: -4098942091326826159, guid: 467a24a686697446d8d035978bde1e3f, type: 3}
    - {fileID: -9192815492500660022, guid: 467a24a686697446d8d035978bde1e3f, type: 3}
    - {fileID: -8528791842903838742, guid: 467a24a686697446d8d035978bde1e3f, type: 3}
    - {fileID: 5714683192730101994, guid: 467a24a686697446d8d035978bde1e3f, type: 3}
    - {fileID: 967789818437793053, guid: 467a24a686697446d8d035978bde1e3f, type: 3}
    - {fileID: -1764178081267469583, guid: 467a24a686697446d8d035978bde1e3f, type: 3}
    - {fileID: 3677593348458361963, guid: 467a24a686697446d8d035978bde1e3f, type: 3}
    - {fileID: 460462634867118153, guid: 467a24a686697446d8d035978bde1e3f, type: 3}
  m_AnimationClipSettings:
    serializedVersion: 2
    m_AdditiveReferencePoseClip: {fileID: 0}
    m_AdditiveReferencePoseTime: 0
    m_StartTime: 0
    m_StopTime: 1.5
    m_OrientationOffsetY: 0
    m_Level: 0
    m_CycleOffset: 0
    m_HasAdditiveReferencePose: 0
    m_LoopTime: 1
    m_LoopBlend: 0
    m_LoopBlendOrientation: 0
    m_LoopBlendPositionY: 0
    m_LoopBlendPositionXZ: 0
    m_KeepOriginalOrientation: 0
    m_KeepOriginalPositionY: 1
    m_KeepOriginalPositionXZ: 0
    m_HeightFromFeet: 0
    m_Mirror: 0
  m_EditorCurves: []
  m_EulerEditorCurves: []
  m_HasGenericRootTransform: 0
  m_HasMotionFloatCurves: 0
  m_Events: []
