%YAML 1.1
%TAG !u! tag:unity3d.com,2011:
--- !u!74 &7400000
AnimationClip:
  m_ObjectHideFlags: 0
  m_CorrespondingSourceObject: {fileID: 0}
  m_PrefabInstance: {fileID: 0}
  m_PrefabAsset: {fileID: 0}
  m_Name: Healing Animation
  serializedVersion: 6
  m_Legacy: 0
  m_Compressed: 0
  m_UseHighQualityCurve: 1
  m_RotationCurves: []
  m_CompressedRotationCurves: []
  m_EulerCurves: []
  m_PositionCurves: []
  m_ScaleCurves: []
  m_FloatCurves: []
  m_PPtrCurves:
  - curve:
    - time: 0
      value: {fileID: -5726562826353546205, guid: 9ca3934013b3f49c4b76e0514bdeb680,
        type: 3}
    - time: 0.083333336
      value: {fileID: -5973212231503140416, guid: 9ca3934013b3f49c4b76e0514bdeb680,
        type: 3}
    - time: 0.16666667
      value: {fileID: -2940277401180639125, guid: 9ca3934013b3f49c4b76e0514bdeb680,
        type: 3}
    - time: 0.25
      value: {fileID: -1119932106744688432, guid: 9ca3934013b3f49c4b76e0514bdeb680,
        type: 3}
    - time: 0.33333334
      value: {fileID: 8033989129589781862, guid: 9ca3934013b3f49c4b76e0514bdeb680,
        type: 3}
    - time: 0.41666666
      value: {fileID: -2418388058936657879, guid: 9ca3934013b3f49c4b76e0514bdeb680,
        type: 3}
    - time: 0.5
      value: {fileID: 3473333722197993850, guid: 9ca3934013b3f49c4b76e0514bdeb680,
        type: 3}
    - time: 0.5833333
      value: {fileID: -1114308793073283200, guid: 9ca3934013b3f49c4b76e0514bdeb680,
        type: 3}
    - time: 0.6666667
      value: {fileID: 6196606960631759040, guid: 9ca3934013b3f49c4b76e0514bdeb680,
        type: 3}
    - time: 0.75
      value: {fileID: -4295627771976330114, guid: 9ca3934013b3f49c4b76e0514bdeb680,
        type: 3}
    - time: 0.8333333
      value: {fileID: 6570051888439363893, guid: 9ca3934013b3f49c4b76e0514bdeb680,
        type: 3}
    - time: 0.9166667
      value: {fileID: 8856679763608421993, guid: 9ca3934013b3f49c4b76e0514bdeb680,
        type: 3}
    - time: 1
      value: {fileID: 5708093428931066138, guid: 9ca3934013b3f49c4b76e0514bdeb680,
        type: 3}
    - time: 1.0833334
      value: {fileID: -1145589770625768726, guid: 9ca3934013b3f49c4b76e0514bdeb680,
        type: 3}
    - time: 1.1666666
      value: {fileID: -8511948666017425834, guid: 9ca3934013b3f49c4b76e0514bdeb680,
        type: 3}
    - time: 1.25
      value: {fileID: -2190202328425470181, guid: 9ca3934013b3f49c4b76e0514bdeb680,
        type: 3}
    - time: 1.3333334
      value: {fileID: -6891758208143397051, guid: 9ca3934013b3f49c4b76e0514bdeb680,
        type: 3}
    - time: 1.4166666
      value: {fileID: 142529225390031200, guid: 9ca3934013b3f49c4b76e0514bdeb680,
        type: 3}
    - time: 1.5
      value: {fileID: -6960368468025254520, guid: 9ca3934013b3f49c4b76e0514bdeb680,
        type: 3}
    - time: 1.5833334
      value: {fileID: -1562136459903369484, guid: 9ca3934013b3f49c4b76e0514bdeb680,
        type: 3}
    attribute: m_Sprite
    path: 
    classID: 212
    script: {fileID: 0}
  m_SampleRate: 12
  m_WrapMode: 0
  m_Bounds:
    m_Center: {x: 0, y: 0, z: 0}
    m_Extent: {x: 0, y: 0, z: 0}
  m_ClipBindingConstant:
    genericBindings:
    - serializedVersion: 2
      path: 0
      attribute: 0
      script: {fileID: 0}
      typeID: 212
      customType: 23
      isPPtrCurve: 1
    pptrCurveMapping:
    - {fileID: -5726562826353546205, guid: 9ca3934013b3f49c4b76e0514bdeb680, type: 3}
    - {fileID: -5973212231503140416, guid: 9ca3934013b3f49c4b76e0514bdeb680, type: 3}
    - {fileID: -2940277401180639125, guid: 9ca3934013b3f49c4b76e0514bdeb680, type: 3}
    - {fileID: -1119932106744688432, guid: 9ca3934013b3f49c4b76e0514bdeb680, type: 3}
    - {fileID: 8033989129589781862, guid: 9ca3934013b3f49c4b76e0514bdeb680, type: 3}
    - {fileID: -2418388058936657879, guid: 9ca3934013b3f49c4b76e0514bdeb680, type: 3}
    - {fileID: 3473333722197993850, guid: 9ca3934013b3f49c4b76e0514bdeb680, type: 3}
    - {fileID: -1114308793073283200, guid: 9ca3934013b3f49c4b76e0514bdeb680, type: 3}
    - {fileID: 6196606960631759040, guid: 9ca3934013b3f49c4b76e0514bdeb680, type: 3}
    - {fileID: -4295627771976330114, guid: 9ca3934013b3f49c4b76e0514bdeb680, type: 3}
    - {fileID: 6570051888439363893, guid: 9ca3934013b3f49c4b76e0514bdeb680, type: 3}
    - {fileID: 8856679763608421993, guid: 9ca3934013b3f49c4b76e0514bdeb680, type: 3}
    - {fileID: 5708093428931066138, guid: 9ca3934013b3f49c4b76e0514bdeb680, type: 3}
    - {fileID: -1145589770625768726, guid: 9ca3934013b3f49c4b76e0514bdeb680, type: 3}
    - {fileID: -8511948666017425834, guid: 9ca3934013b3f49c4b76e0514bdeb680, type: 3}
    - {fileID: -2190202328425470181, guid: 9ca3934013b3f49c4b76e0514bdeb680, type: 3}
    - {fileID: -6891758208143397051, guid: 9ca3934013b3f49c4b76e0514bdeb680, type: 3}
    - {fileID: 142529225390031200, guid: 9ca3934013b3f49c4b76e0514bdeb680, type: 3}
    - {fileID: -6960368468025254520, guid: 9ca3934013b3f49c4b76e0514bdeb680, type: 3}
    - {fileID: -1562136459903369484, guid: 9ca3934013b3f49c4b76e0514bdeb680, type: 3}
  m_AnimationClipSettings:
    serializedVersion: 2
    m_AdditiveReferencePoseClip: {fileID: 0}
    m_AdditiveReferencePoseTime: 0
    m_StartTime: 0
    m_StopTime: 1.6666667
    m_OrientationOffsetY: 0
    m_Level: 0
    m_CycleOffset: 0
    m_HasAdditiveReferencePose: 0
    m_LoopTime: 1
    m_LoopBlend: 0
    m_LoopBlendOrientation: 0
    m_LoopBlendPositionY: 0
    m_LoopBlendPositionXZ: 0
    m_KeepOriginalOrientation: 0
    m_KeepOriginalPositionY: 1
    m_KeepOriginalPositionXZ: 0
    m_HeightFromFeet: 0
    m_Mirror: 0
  m_EditorCurves: []
  m_EulerEditorCurves: []
  m_HasGenericRootTransform: 0
  m_HasMotionFloatCurves: 0
  m_Events: []
